…
``` r
my_bloomberg_data <- c('SPX Index','AGTHX Equity') %>%
    tq_get(get         = "rblpapi",
           rblpapi_fun = "bdh",
           fields      = c("PX_LAST","TOT_RETURN_INDEX_GROSS_DVDS"),
           options     = c("periodicitySelection" = "MONTHLY"),
           start.date        = as.Date("2016-01-01"),
           end.date          = as.Date("2016-12-31")
           )
           

my_bloomberg_data
```

    ## # A tibble: 24 x 4
    ##       symbol       date PX_LAST TOT_RETURN_INDEX_GROSS_DVDS
    ##        <chr>     <date>   <dbl>                       <dbl>
    ##  1 SPX Index 2016-01-29 1940.24                    1940.240
    ##  2 SPX Index 2016-02-29 1932.23                    1937.626
    ##  3 SPX Index 2016-03-31 2059.74                    2069.066
    ##  4 SPX Index 2016-04-29 2065.30                    2077.092
    ##  5 SPX Index 2016-05-31 2096.96                    2114.384
    ##  6 SPX Index 2016-06-30 2098.86                    2119.872
    ##  7 SPX Index 2016-07-29 2173.60                    2198.020
    ##  8 SPX Index 2016-08-31 2170.95                    2201.113
    ##  9 SPX Index 2016-09-30 2168.27                    2201.524
    ## 10 SPX Index 2016-10-31 2126.15                    2161.364
    ## # ... with 14 more rows
…
``` r
my_bloomberg_data <- c('SPX Index','AGTHX Equity') %>%
    tq_get(get         = "Rblpapi",
           rblpapi_fun = "bdh",
           fields      = c("PX_LAST","TOT_RETURN_INDEX_GROSS_DVDS"),
           options     = c("periodicitySelection" = "MONTHLY"),
           from        = "2016-01-01",
           to          = "2016-12-31"
           )
           

my_bloomberg_data
```

    ## # A tibble: 24 x 4
    ##       symbol       date PX_LAST TOT_RETURN_INDEX_GROSS_DVDS
    ##        <chr>     <date>   <dbl>                       <dbl>
    ##  1 SPX Index 2016-01-29 1940.24                    1940.240
    ##  2 SPX Index 2016-02-29 1932.23                    1937.626
    ##  3 SPX Index 2016-03-31 2059.74                    2069.066
    ##  4 SPX Index 2016-04-29 2065.30                    2077.092
    ##  5 SPX Index 2016-05-31 2096.96                    2114.384
    ##  6 SPX Index 2016-06-30 2098.86                    2119.872
    ##  7 SPX Index 2016-07-29 2173.60                    2198.020
    ##  8 SPX Index 2016-08-31 2170.95                    2201.113
    ##  9 SPX Index 2016-09-30 2168.27                    2201.524
    ## 10 SPX Index 2016-10-31 2126.15                    2161.364
    ## # ... with 14 more rows
…
my_bloomberg_data
```

    ## # A tibble: 106 x 3
    ##       symbol       date PX_LAST
    ##        <chr>     <date>   <dbl>
    ##  1 SPX Index 2016-01-01 2043.94
    ##  2 SPX Index 2016-01-08 1922.03
    ##  3 SPX Index 2016-01-15 1880.33
    ##  4 SPX Index 2016-01-22 1906.90
    ##  5 SPX Index 2016-01-29 1940.24
    ##  6 SPX Index 2016-02-05 1880.05
    ##  7 SPX Index 2016-02-12 1864.78
    ##  8 SPX Index 2016-02-19 1917.78
    ##  9 SPX Index 2016-02-26 1948.05
    ## 10 SPX Index 2016-03-04 1999.99
    ## # ... with 96 more rows
…
my_bloomberg_data
```

    ## # A tibble: 504 x 3
    ##       symbol       date PX_LAST
    ##        <chr>     <date>   <dbl>
    ##  1 SPX Index 2016-01-04 2012.66
    ##  2 SPX Index 2016-01-05 2016.71
    ##  3 SPX Index 2016-01-06 1990.26
    ##  4 SPX Index 2016-01-07 1943.09
    ##  5 SPX Index 2016-01-08 1922.03
    ##  6 SPX Index 2016-01-11 1923.67
    ##  7 SPX Index 2016-01-12 1938.68
    ##  8 SPX Index 2016-01-13 1890.28
    ##  9 SPX Index 2016-01-14 1921.84
    ## 10 SPX Index 2016-01-15 1880.33
    ## # ... with 494 more rows
…
my_bloomberg_data
```

    ## # A tibble: 124 x 3
    ##       symbol       date PX_LAST
    ##        <chr>     <date>   <dbl>
    ##  1 GT10 Govt 2016-01-01   2.270
    ##  2 GT10 Govt 2016-01-04   2.244
    ##  3 GT10 Govt 2016-01-05   2.237
    ##  4 GT10 Govt 2016-01-06   2.171
    ##  5 GT10 Govt 2016-01-07   2.146
    ##  6 GT10 Govt 2016-01-08   2.116
    ##  7 GT10 Govt 2016-01-11   2.176
    ##  8 GT10 Govt 2016-01-12   2.104
    ##  9 GT10 Govt 2016-01-13   2.094
    ## 10 GT10 Govt 2016-01-14   2.088
    ## # ... with 114 more rows
…
